{
  "posts": [
    {
      "email": "test@gmail.com",
      "fname": "test",
      "lname": "abdul",
      "password": "123asd!",
      "address": "test 111",
      "phone": "+62123456",
      "id": 1
    },
    {
      "email": "test@gmail.com",
      "fname": "abdul",
      "lname": "Kadir2",
      "password": "123asd!",
      "address": "0123",
      "phone": "+620123123",
      "id": 2
    },
    {
      "email": "john@gmail.com",
      "fname": "John",
      "lname": "Doe",
      "password": "123asd@",
      "address": "Independence st., New Jersey, 1st",
      "phone": "+62333333",
      "id": 5
    },
    {
      "email": "t@gmail.com",
      "fname": "Michael",
      "lname": "Jackson",
      "password": "123asd!",
      "address": "New York Ave",
      "phone": "+6244444",
      "id": 6
    },
    {
      "email": "test@gmail.com",
      "fname": "Angka",
      "lname": "Wijaya",
      "password": "asd123!",
      "address": "Jalan jalan 2",
      "phone": "+62123",
      "id": 7
    }
  ],
  "comments": [
    {
      "id": 1,
      "body": "some comment",
      "postId": 1
    }
  ],
  "profile": {
    "name": "typicode"
  }
}